{
  "project_info": {
    "project_number": "23978655351",
    "firebase_url": "https://graphic-era.firebaseio.com",
    "project_id": "graphic-era",
    "storage_bucket": "graphic-era.appspot.com"
  },
  "client": [
    {
      "client_info": {
        "mobilesdk_app_id": "1:23978655351:android:124c4db4ea5a667e",
        "android_client_info": {
          "package_name": "in.ac.geu"
        }
      },
      "oauth_client": [
        {
          "client_id": "23978655351-hr47djrmsn6i2tn99t6reg4i2q09pbqv.apps.googleusercontent.com",
          "client_type": 3
        }
      ],
      "api_key": [
        {
          "current_key": "AIzaSyD7pAezLXV3k7k5Mphid4ckX0NLZ1yM2ZM"
        }
      ],
      "services": {
        "analytics_service": {
          "status": 1
        },
        "appinvite_service": {
          "status": 1,
          "other_platform_oauth_client": []
        },
        "ads_service": {
          "status": 2
        }
      }
    },
    {
      "client_info": {
        "mobilesdk_app_id": "1:23978655351:android:2b2fece6b961cc70",
        "android_client_info": {
          "package_name": "in.ac.geu.debug"
        }
      },
      "oauth_client": [
        {
          "client_id": "23978655351-hr47djrmsn6i2tn99t6reg4i2q09pbqv.apps.googleusercontent.com",
          "client_type": 3
        }
      ],
      "api_key": [
        {
          "current_key": "AIzaSyD7pAezLXV3k7k5Mphid4ckX0NLZ1yM2ZM"
        }
      ],
      "services": {
        "analytics_service": {
          "status": 1
        },
        "appinvite_service": {
          "status": 1,
          "other_platform_oauth_client": []
        },
        "ads_service": {
          "status": 2
        }
      }
    }
  ],
  "configuration_version": "1"
}